%YAML 1.1
%TAG !u! tag:unity3d.com,2011:
--- !u!74 &7400000
AnimationClip:
  m_ObjectHideFlags: 0
  m_PrefabParentObject: {fileID: 0}
  m_PrefabInternal: {fileID: 0}
  m_Name: knight-idle
  serializedVersion: 6
  m_Legacy: 0
  m_Compressed: 0
  m_UseHighQualityCurve: 1
  m_RotationCurves: []
  m_CompressedRotationCurves: []
  m_PositionCurves: []
  m_ScaleCurves: []
  m_FloatCurves: []
  m_PPtrCurves:
  - curve:
    - time: 0
      value: {fileID: 21300000, guid: 7f099e42c676e2c45b369705eb9aaf6a, type: 3}
    - time: .0833333358
      value: {fileID: 21300000, guid: 04e0048f9c0ccfc4e9d11f3c810a366d, type: 3}
    - time: .166666672
      value: {fileID: 21300000, guid: 10fc41aeead471648a99c6b17a3230b7, type: 3}
    - time: .25
      value: {fileID: 21300000, guid: 7347a8e14d2191744ab25b8040507463, type: 3}
    - time: .333333343
      value: {fileID: 21300000, guid: 375074717092e7046b947e9887e1415a, type: 3}
    attribute: m_Sprite
    path: 
    classID: 212
    script: {fileID: 0}
  m_SampleRate: 12
  m_WrapMode: 0
  m_Bounds:
    m_Center: {x: 0, y: 0, z: 0}
    m_Extent: {x: 0, y: 0, z: 0}
  m_ClipBindingConstant:
    genericBindings:
    - path: 0
      attribute: 0
      script: {fileID: 0}
      classID: 212
      customType: 23
      isPPtrCurve: 1
    pptrCurveMapping:
    - {fileID: 21300000, guid: 7f099e42c676e2c45b369705eb9aaf6a, type: 3}
    - {fileID: 21300000, guid: 04e0048f9c0ccfc4e9d11f3c810a366d, type: 3}
    - {fileID: 21300000, guid: 10fc41aeead471648a99c6b17a3230b7, type: 3}
    - {fileID: 21300000, guid: 7347a8e14d2191744ab25b8040507463, type: 3}
    - {fileID: 21300000, guid: 375074717092e7046b947e9887e1415a, type: 3}
  m_AnimationClipSettings:
    serializedVersion: 2
    m_StartTime: 0
    m_StopTime: .416666657
    m_OrientationOffsetY: 0
    m_Level: 0
    m_CycleOffset: 0
    m_LoopTime: 1
    m_LoopBlend: 0
    m_LoopBlendOrientation: 0
    m_LoopBlendPositionY: 0
    m_LoopBlendPositionXZ: 0
    m_KeepOriginalOrientation: 0
    m_KeepOriginalPositionY: 1
    m_KeepOriginalPositionXZ: 0
    m_HeightFromFeet: 0
    m_Mirror: 0
  m_EditorCurves: []
  m_EulerEditorCurves: []
  m_HasGenericRootTransform: 0
  m_HasMotionFloatCurves: 0
  m_GenerateMotionCurves: 0
  m_Events: []
